{
  "annotations": {
    "list": [
      {
        "builtIn": 1,
        "datasource": {
          "type": "datasource",
          "uid": "grafana"
        },
        "enable": true,
        "hide": true,
        "iconColor": "rgba(0, 211, 255, 1)",
        "name": "Annotations & Alerts",
        "target": {
          "limit": 100,
          "matchAny": false,
          "tags": [],
          "type": "dashboard"
        },
        "type": "dashboard"
      }
    ]
  },
  "description": "",
  "editable": true,
  "fiscalYearStartMonth": 0,
  "graphTooltip": 0,
  "id": 2,
  "links": [],
  "liveNow": false,
  "panels": [
    {
      "datasource": {
        "uid": "Graphite"
      },
      "gridPos": {
        "h": 8,
        "w": 4,
        "x": 0,
        "y": 0
      },
      "id": 198,
      "options": {
        "maxItems": 10,
        "query": "",
        "showHeadings": false,
        "showRecentlyViewed": false,
        "showSearch": true,
        "showStarred": false,
        "tags": []
      },
      "pluginVersion": "9.1.4",
      "tags": [],
      "targets": [
        {
          "refId": "A",
          "target": ""
        }
      ],
      "title": "Dashboards",
      "transparent": true,
      "type": "dashlist"
    },
    {
      "collapsed": true,
      "datasource": {
        "uid": "Graphite"
      },
      "gridPos": {
        "h": 1,
        "w": 24,
        "x": 0,
        "y": 8
      },
      "id": 6,
      "panels": [
        {
          "datasource": {
            "type": "prometheus",
            "uid": "PBFA97CFB590B2093"
          },
          "description": "",
          "gridPos": {
            "h": 2,
            "w": 24,
            "x": 0,
            "y": 9
          },
          "id": 196,
          "options": {
            "content": "",
            "mode": "markdown"
          },
          "pluginVersion": "9.0.7",
          "title": "Status Hypervisor ",
          "type": "text"
        },
        {
          "aliasColors": {},
          "bars": false,
          "dashLength": 10,
          "dashes": false,
          "datasource": {
            "type": "prometheus",
            "uid": "PBFA97CFB590B2093"
          },
          "fieldConfig": {
            "defaults": {
              "links": []
            },
            "overrides": []
          },
          "fill": 2,
          "fillGradient": 0,
          "gridPos": {
            "h": 9,
            "w": 12,
            "x": 0,
            "y": 11
          },
          "hiddenSeries": false,
          "id": 216,
          "legend": {
            "alignAsTable": true,
            "avg": true,
            "current": true,
            "max": true,
            "min": true,
            "show": true,
            "total": false,
            "values": true
          },
          "lines": true,
          "linewidth": 1,
          "links": [],
          "maxPerRow": 6,
          "nullPointMode": "null",
          "options": {
            "alertThreshold": true
          },
          "percentage": false,
          "pluginVersion": "9.0.7",
          "pointradius": 5,
          "points": false,
          "renderer": "flot",
          "seriesOverrides": [],
          "spaceLength": 10,
          "stack": false,
          "steppedLine": false,
          "targets": [
            {
              "datasource": {
                "type": "prometheus",
                "uid": "PBFA97CFB590B2093"
              },
              "expr": "node_load1{domain=\"$domain\"}",
              "format": "time_series",
              "intervalFactor": 4,
              "legendFormat": "Load 1m",
              "refId": "A",
              "step": 240
            },
            {
              "datasource": {
                "type": "prometheus",
                "uid": "PBFA97CFB590B2093"
              },
              "expr": "node_load5{domain=\"$domain\"}",
              "format": "time_series",
              "intervalFactor": 4,
              "legendFormat": "Load 5m",
              "refId": "B",
              "step": 240
            },
            {
              "datasource": {
                "type": "prometheus",
                "uid": "PBFA97CFB590B2093"
              },
              "expr": "node_load15{domain=\"$domain\"}",
              "format": "time_series",
              "intervalFactor": 4,
              "legendFormat": "Load 15m",
              "refId": "C",
              "step": 240
            }
          ],
          "thresholds": [],
          "timeRegions": [],
          "title": "System Load",
          "tooltip": {
            "shared": true,
            "sort": 0,
            "value_type": "individual"
          },
          "type": "graph",
          "xaxis": {
            "mode": "time",
            "show": true,
            "values": []
          },
          "yaxes": [
            {
              "$$hashKey": "object:6261",
              "format": "short",
              "label": "counter",
              "logBase": 1,
              "min": "0",
              "show": true
            },
            {
              "$$hashKey": "object:6262",
              "format": "short",
              "logBase": 1,
              "show": false
            }
          ],
          "yaxis": {
            "align": false
          }
        },
        {
          "aliasColors": {
            "Idle - Waiting for something to happen": "#052B51",
            "guest": "#9AC48A",
            "idle": "#052B51",
            "iowait": "#EAB839",
            "irq": "#BF1B00",
            "nice": "#C15C17",
            "softirq": "#E24D42",
            "steal": "#FCE2DE",
            "system": "#508642",
            "user": "#5195CE"
          },
          "bars": false,
          "dashLength": 10,
          "dashes": false,
          "datasource": {
            "type": "prometheus",
            "uid": "PBFA97CFB590B2093"
          },
          "decimals": 2,
          "description": "",
          "fieldConfig": {
            "defaults": {
              "links": []
            },
            "overrides": []
          },
          "fill": 4,
          "fillGradient": 0,
          "gridPos": {
            "h": 9,
            "w": 12,
            "x": 12,
            "y": 11
          },
          "hiddenSeries": false,
          "id": 200,
          "legend": {
            "alignAsTable": true,
            "avg": true,
            "current": true,
            "max": true,
            "min": true,
            "rightSide": false,
            "show": true,
            "sideWidth": 250,
            "total": false,
            "values": true
          },
          "lines": true,
          "linewidth": 1,
          "links": [],
          "maxPerRow": 6,
          "nullPointMode": "null",
          "options": {
            "alertThreshold": true
          },
          "percentage": true,
          "pluginVersion": "9.0.7",
          "pointradius": 5,
          "points": false,
          "renderer": "flot",
          "seriesOverrides": [],
          "spaceLength": 10,
          "stack": true,
          "steppedLine": false,
          "targets": [
            {
              "datasource": {
                "type": "prometheus",
                "uid": "PBFA97CFB590B2093"
              },
              "expr": "sum by (mode)(rate(node_cpu_seconds_total{mode=\"system\",domain=\"$domain\"}[$__rate_interval])) * 100",
              "format": "time_series",
              "interval": "10s",
              "intervalFactor": 1,
              "legendFormat": "System - Processes executing in kernel mode",
              "refId": "A",
              "step": 240
            },
            {
              "datasource": {
                "type": "prometheus",
                "uid": "PBFA97CFB590B2093"
              },
              "expr": "sum by (mode)(rate(node_cpu_seconds_total{mode='user',domain=\"$domain\"}[$__rate_interval])) * 100",
              "format": "time_series",
              "intervalFactor": 1,
              "legendFormat": "User - Normal processes executing in user mode",
              "refId": "B",
              "step": 240
            },
            {
              "datasource": {
                "type": "prometheus",
                "uid": "PBFA97CFB590B2093"
              },
              "expr": "sum by (mode)(rate(node_cpu_seconds_total{mode='nice',domain=\"$domain\"}[$__rate_interval])) * 100",
              "format": "time_series",
              "intervalFactor": 1,
              "legendFormat": "Nice - Niced processes executing in user mode",
              "refId": "C",
              "step": 240
            },
            {
              "datasource": {
                "type": "prometheus",
                "uid": "PBFA97CFB590B2093"
              },
              "expr": "sum by (mode)(rate(node_cpu_seconds_total{mode='idle',domain=\"$domain\"}[$__rate_interval])) * 100",
              "format": "time_series",
              "intervalFactor": 1,
              "legendFormat": "Idle - Waiting for something to happen",
              "refId": "D",
              "step": 240
            },
            {
              "datasource": {
                "type": "prometheus",
                "uid": "PBFA97CFB590B2093"
              },
              "expr": "sum by (mode)(rate(node_cpu_seconds_total{mode='iowait',domain=\"$domain\"}[$__rate_interval])) * 100",
              "format": "time_series",
              "intervalFactor": 1,
              "legendFormat": "Iowait - Waiting for I/O to complete",
              "refId": "E",
              "step": 240
            },
            {
              "datasource": {
                "type": "prometheus",
                "uid": "PBFA97CFB590B2093"
              },
              "expr": "sum by (mode)(rate(node_cpu_seconds_total{mode='irq',domain=\"$domain\"}[$__rate_interval])) * 100",
              "format": "time_series",
              "intervalFactor": 1,
              "legendFormat": "Irq - Servicing interrupts",
              "refId": "F",
              "step": 240
            },
            {
              "datasource": {
                "type": "prometheus",
                "uid": "PBFA97CFB590B2093"
              },
              "expr": "sum by (mode)(rate(node_cpu_seconds_total{mode='softirq',domain=\"$domain\"}[$__rate_interval])) * 100",
              "format": "time_series",
              "intervalFactor": 1,
              "legendFormat": "Softirq - Servicing softirqs",
              "refId": "G",
              "step": 240
            },
            {
              "datasource": {
                "type": "prometheus",
                "uid": "PBFA97CFB590B2093"
              },
              "expr": "sum by (mode)(rate(node_cpu_seconds_total{mode='steal',domain=\"$domain\"}[$__rate_interval])) * 100",
              "format": "time_series",
              "intervalFactor": 1,
              "legendFormat": "Steal - Time spent in other operating systems when running in a virtualized environment",
              "refId": "H",
              "step": 240
            },
            {
              "datasource": {
                "type": "prometheus",
                "uid": "PBFA97CFB590B2093"
              },
              "expr": "sum by (mode)(rate(node_cpu_seconds_total{mode='guest',domain=\"$domain\"}[$__rate_interval])) * 100",
              "format": "time_series",
              "intervalFactor": 1,
              "legendFormat": "Guest - Time spent running a virtual CPU for a guest operating system",
              "refId": "I",
              "step": 240
            }
          ],
          "thresholds": [],
          "timeRegions": [],
          "title": "CPU",
          "tooltip": {
            "shared": true,
            "sort": 0,
            "value_type": "individual"
          },
          "type": "graph",
          "xaxis": {
            "mode": "time",
            "show": true,
            "values": []
          },
          "yaxes": [
            {
              "format": "short",
              "label": "percentage",
              "logBase": 1,
              "max": "100",
              "min": "0",
              "show": true
            },
            {
              "format": "short",
              "logBase": 1,
              "show": false
            }
          ],
          "yaxis": {
            "align": false
          }
        },
        {
          "aliasColors": {},
          "bars": false,
          "dashLength": 10,
          "dashes": false,
          "datasource": {
            "type": "prometheus",
            "uid": "PBFA97CFB590B2093"
          },
          "decimals": 3,
          "description": "",
          "fieldConfig": {
            "defaults": {
              "links": []
            },
            "overrides": []
          },
          "fill": 4,
          "fillGradient": 0,
          "gridPos": {
            "h": 9,
            "w": 12,
            "x": 0,
            "y": 20
          },
          "height": "",
          "hiddenSeries": false,
          "id": 204,
          "legend": {
            "alignAsTable": true,
            "avg": true,
            "current": true,
            "max": true,
            "min": true,
            "rightSide": false,
            "show": true,
            "sort": "current",
            "sortDesc": false,
            "total": false,
            "values": true
          },
          "lines": true,
          "linewidth": 1,
          "links": [],
          "maxPerRow": 6,
          "nullPointMode": "null",
          "options": {
            "alertThreshold": true
          },
          "percentage": false,
          "pluginVersion": "9.0.7",
          "pointradius": 5,
          "points": false,
          "renderer": "flot",
          "seriesOverrides": [],
          "spaceLength": 10,
          "stack": false,
          "steppedLine": false,
          "targets": [
            {
              "datasource": {
                "type": "prometheus",
                "uid": "PBFA97CFB590B2093"
              },
              "expr": "node_filesystem_size_bytes{domain=\"$domain\",device!~'rootfs'} - node_filesystem_avail_bytes{domain=\"$domain\",device!~'rootfs'}",
              "format": "time_series",
              "intervalFactor": 1,
              "legendFormat": "{{mountpoint}}",
              "refId": "A",
              "step": 240
            }
          ],
          "thresholds": [],
          "timeRegions": [],
          "title": "Disk Space Used",
          "tooltip": {
            "shared": true,
            "sort": 0,
            "value_type": "individual"
          },
          "type": "graph",
          "xaxis": {
            "mode": "time",
            "show": true,
            "values": []
          },
          "yaxes": [
            {
              "format": "bytes",
              "label": "bytes",
              "logBase": 1,
              "min": "0",
              "show": true
            },
            {
              "format": "short",
              "logBase": 1,
              "show": false
            }
          ],
          "yaxis": {
            "align": false
          }
        },
        {
          "aliasColors": {
            "Apps": "#629E51",
            "Buffers": "#614D93",
            "Cache": "#6D1F62",
            "Cached": "#511749",
            "Committed": "#508642",
            "Free": "#0A437C",
            "Hardware Corrupted - Amount of RAM that the kernel identified as corrupted / not working": "#CFFAFF",
            "Inactive": "#584477",
            "PageTables": "#0A50A1",
            "Page_Tables": "#0A50A1",
            "RAM_Free": "#E0F9D7",
            "Slab": "#806EB7",
            "Slab_Cache": "#E0752D",
            "Swap": "#BF1B00",
            "Swap - Swap memory usage": "#BF1B00",
            "Swap_Cache": "#C15C17",
            "Swap_Free": "#2F575E",
            "Unused": "#EAB839",
            "Unused - Free memory unassigned": "#052B51"
          },
          "bars": false,
          "dashLength": 10,
          "dashes": false,
          "datasource": {
            "type": "prometheus",
            "uid": "PBFA97CFB590B2093"
          },
          "decimals": 2,
          "description": "",
          "fieldConfig": {
            "defaults": {
              "links": []
            },
            "overrides": []
          },
          "fill": 4,
          "fillGradient": 0,
          "gridPos": {
            "h": 9,
            "w": 12,
            "x": 12,
            "y": 20
          },
          "hiddenSeries": false,
          "id": 202,
          "legend": {
            "alignAsTable": true,
            "avg": true,
            "current": true,
            "max": true,
            "min": true,
            "rightSide": false,
            "show": true,
            "sideWidth": 350,
            "total": false,
            "values": true
          },
          "lines": true,
          "linewidth": 1,
          "links": [],
          "maxPerRow": 6,
          "nullPointMode": "null",
          "options": {
            "alertThreshold": true
          },
          "percentage": false,
          "pluginVersion": "9.0.7",
          "pointradius": 5,
          "points": false,
          "renderer": "flot",
          "seriesOverrides": [
            {
              "alias": "/.*Hardware Corrupted - *./",
              "stack": false
            }
          ],
          "spaceLength": 10,
          "stack": true,
          "steppedLine": false,
          "targets": [
            {
              "datasource": {
                "type": "prometheus",
                "uid": "PBFA97CFB590B2093"
              },
              "expr": "node_memory_MemTotal_bytes{domain=\"$domain\"} - node_memory_MemFree_bytes{domain=\"$domain\"} - node_memory_Buffers_bytes{domain=\"$domain\"} - node_memory_Cached_bytes{domain=\"$domain\"} - node_memory_Slab_bytes{domain=\"$domain\"} - node_memory_PageTables_bytes{domain=\"$domain\"} - node_memory_SwapCached_bytes{domain=\"$domain\"}",
              "format": "time_series",
              "hide": false,
              "intervalFactor": 1,
              "legendFormat": "Apps - Memory used by user-space applications",
              "refId": "A",
              "step": 240
            },
            {
              "datasource": {
                "type": "prometheus",
                "uid": "PBFA97CFB590B2093"
              },
              "expr": "node_memory_PageTables_bytes{domain=\"$domain\"}",
              "format": "time_series",
              "hide": false,
              "intervalFactor": 1,
              "legendFormat": "PageTables - Memory used to map between virtual and physical memory addresses",
              "refId": "B",
              "step": 240
            },
            {
              "datasource": {
                "type": "prometheus",
                "uid": "PBFA97CFB590B2093"
              },
              "expr": "node_memory_SwapCached_bytes{domain=\"$domain\"}",
              "format": "time_series",
              "intervalFactor": 1,
              "legendFormat": "SwapCache - Memory that keeps track of pages that have been fetched from swap but not yet been modified",
              "refId": "C",
              "step": 240
            },
            {
              "datasource": {
                "type": "prometheus",
                "uid": "PBFA97CFB590B2093"
              },
              "expr": "node_memory_Slab_bytes{domain=\"$domain\"}",
              "format": "time_series",
              "hide": false,
              "intervalFactor": 1,
              "legendFormat": "Slab - Memory used by the kernel to cache data structures for its own use (caches like inode, dentry, etc)",
              "refId": "D",
              "step": 240
            },
            {
              "datasource": {
                "type": "prometheus",
                "uid": "PBFA97CFB590B2093"
              },
              "expr": "node_memory_Cached_bytes{domain=\"$domain\"}",
              "format": "time_series",
              "hide": false,
              "intervalFactor": 1,
              "legendFormat": "Cache - Parked file data (file content) cache",
              "refId": "E",
              "step": 240
            },
            {
              "datasource": {
                "type": "prometheus",
                "uid": "PBFA97CFB590B2093"
              },
              "expr": "node_memory_Buffers_bytes{domain=\"$domain\"}",
              "format": "time_series",
              "hide": false,
              "intervalFactor": 1,
              "legendFormat": "Buffers - Block device (e.g. harddisk) cache",
              "refId": "F",
              "step": 240
            },
            {
              "datasource": {
                "type": "prometheus",
                "uid": "PBFA97CFB590B2093"
              },
              "expr": "node_memory_MemFree_bytes{domain=\"$domain\"}",
              "format": "time_series",
              "hide": false,
              "intervalFactor": 1,
              "legendFormat": "Unused - Free memory unassigned",
              "refId": "G",
              "step": 240
            },
            {
              "datasource": {
                "type": "prometheus",
                "uid": "PBFA97CFB590B2093"
              },
              "expr": "(node_memory_SwapTotal_bytes{domain=\"$domain\"} - node_memory_SwapFree_bytes{domain=\"$domain\"})",
              "format": "time_series",
              "hide": false,
              "intervalFactor": 1,
              "legendFormat": "Swap - Swap space used",
              "refId": "H",
              "step": 240
            },
            {
              "datasource": {
                "type": "prometheus",
                "uid": "PBFA97CFB590B2093"
              },
              "expr": "node_memory_HardwareCorrupted_bytes{domain=\"$domain\"}",
              "format": "time_series",
              "hide": false,
              "intervalFactor": 1,
              "legendFormat": "Hardware Corrupted - Amount of RAM that the kernel identified as corrupted / not working",
              "refId": "I",
              "step": 240
            }
          ],
          "thresholds": [],
          "timeRegions": [],
          "title": "Memory Stack",
          "tooltip": {
            "shared": true,
            "sort": 0,
            "value_type": "individual"
          },
          "type": "graph",
          "xaxis": {
            "mode": "time",
            "show": true,
            "values": []
          },
          "yaxes": [
            {
              "format": "bytes",
              "label": "bytes",
              "logBase": 1,
              "min": "0",
              "show": true
            },
            {
              "format": "short",
              "logBase": 1,
              "show": false
            }
          ],
          "yaxis": {
            "align": false
          }
        },
        {
          "aliasColors": {},
          "bars": false,
          "dashLength": 10,
          "dashes": false,
          "datasource": {
            "type": "prometheus",
            "uid": "PBFA97CFB590B2093"
          },
          "description": "",
          "fieldConfig": {
            "defaults": {
              "links": []
            },
            "overrides": []
          },
          "fill": 2,
          "fillGradient": 0,
          "gridPos": {
            "h": 8,
            "w": 12,
            "x": 0,
            "y": 29
          },
          "hiddenSeries": false,
          "id": 208,
          "legend": {
            "alignAsTable": true,
            "avg": true,
            "current": true,
            "hideZero": true,
            "max": true,
            "min": true,
            "rightSide": false,
            "show": true,
            "total": false,
            "values": true
          },
          "lines": true,
          "linewidth": 1,
          "links": [],
          "maxPerRow": 6,
          "nullPointMode": "null",
          "options": {
            "alertThreshold": true
          },
          "percentage": false,
          "pluginVersion": "9.0.7",
          "pointradius": 5,
          "points": false,
          "renderer": "flot",
          "seriesOverrides": [
            {
              "alias": "/.*Read.*/",
              "transform": "negative-Y"
            },
            {
              "alias": "/.*sda_.*/",
              "color": "#7EB26D"
            },
            {
              "alias": "/.*sdb_.*/",
              "color": "#EAB839"
            },
            {
              "alias": "/.*sdc_.*/",
              "color": "#6ED0E0"
            },
            {
              "alias": "/.*sdd_.*/",
              "color": "#EF843C"
            },
            {
              "alias": "/.*sde_.*/",
              "color": "#E24D42"
            },
            {
              "alias": "/.*sda1.*/",
              "color": "#584477"
            },
            {
              "alias": "/.*sda2_.*/",
              "color": "#BA43A9"
            },
            {
              "alias": "/.*sda3_.*/",
              "color": "#F4D598"
            },
            {
              "alias": "/.*sdb1.*/",
              "color": "#0A50A1"
            },
            {
              "alias": "/.*sdb2.*/",
              "color": "#BF1B00"
            },
            {
              "alias": "/.*sdb2.*/",
              "color": "#BF1B00"
            },
            {
              "alias": "/.*sdb3.*/",
              "color": "#E0752D"
            },
            {
              "alias": "/.*sdc1.*/",
              "color": "#962D82"
            },
            {
              "alias": "/.*sdc2.*/",
              "color": "#614D93"
            },
            {
              "alias": "/.*sdc3.*/",
              "color": "#9AC48A"
            },
            {
              "alias": "/.*sdd1.*/",
              "color": "#65C5DB"
            },
            {
              "alias": "/.*sdd2.*/",
              "color": "#F9934E"
            },
            {
              "alias": "/.*sdd3.*/",
              "color": "#EA6460"
            },
            {
              "alias": "/.*sde1.*/",
              "color": "#E0F9D7"
            },
            {
              "alias": "/.*sdd2.*/",
              "color": "#FCEACA"
            },
            {
              "alias": "/.*sde3.*/",
              "color": "#F9E2D2"
            }
          ],
          "spaceLength": 10,
          "stack": false,
          "steppedLine": false,
          "targets": [
            {
              "datasource": {
                "type": "prometheus",
                "uid": "PBFA97CFB590B2093"
              },
              "expr": "rate(node_disk_reads_completed_total{domain=\"$domain\",device=~\"$diskdevices\"}[$__rate_interval])",
              "intervalFactor": 4,
              "legendFormat": "{{device}} - Reads completed",
              "refId": "A",
              "step": 240
            },
            {
              "datasource": {
                "type": "prometheus",
                "uid": "PBFA97CFB590B2093"
              },
              "expr": "rate(node_disk_writes_completed_total{domain=\"$domain\",device=~\"$diskdevices\"}[$__rate_interval])",
              "intervalFactor": 1,
              "legendFormat": "{{device}} - Writes completed",
              "refId": "B",
              "step": 240
            }
          ],
          "thresholds": [],
          "timeRegions": [],
          "title": "Disk IOps",
          "tooltip": {
            "shared": false,
            "sort": 0,
            "value_type": "individual"
          },
          "type": "graph",
          "xaxis": {
            "mode": "time",
            "show": true,
            "values": []
          },
          "yaxes": [
            {
              "format": "iops",
              "label": "IO read (-) / write (+)",
              "logBase": 1,
              "show": true
            },
            {
              "format": "short",
              "logBase": 1,
              "show": false
            }
          ],
          "yaxis": {
            "align": false
          }
        },
        {
          "aliasColors": {
            "receive_packets_eth0": "#7EB26D",
            "receive_packets_lo": "#E24D42",
            "transmit_packets_eth0": "#7EB26D",
            "transmit_packets_lo": "#E24D42"
          },
          "bars": false,
          "dashLength": 10,
          "dashes": false,
          "datasource": {
            "type": "prometheus",
            "uid": "PBFA97CFB590B2093"
          },
          "fieldConfig": {
            "defaults": {
              "links": []
            },
            "overrides": []
          },
          "fill": 4,
          "fillGradient": 0,
          "gridPos": {
            "h": 8,
            "w": 12,
            "x": 12,
            "y": 29
          },
          "hiddenSeries": false,
          "id": 206,
          "legend": {
            "alignAsTable": true,
            "avg": true,
            "current": true,
            "max": true,
            "min": true,
            "rightSide": false,
            "show": true,
            "total": false,
            "values": true
          },
          "lines": true,
          "linewidth": 1,
          "links": [],
          "nullPointMode": "null",
          "options": {
            "alertThreshold": true
          },
          "percentage": false,
          "pluginVersion": "9.0.7",
          "pointradius": 5,
          "points": false,
          "renderer": "flot",
          "seriesOverrides": [
            {
              "$$hashKey": "object:5871",
              "alias": "/.*Trans.*/",
              "transform": "negative-Y"
            }
          ],
          "spaceLength": 10,
          "stack": false,
          "steppedLine": false,
          "targets": [
            {
              "datasource": {
                "type": "prometheus",
                "uid": "PBFA97CFB590B2093"
              },
              "expr": "rate(node_network_receive_bytes_total{domain=\"$domain\"}[$__rate_interval])*8",
              "format": "time_series",
              "intervalFactor": 1,
              "legendFormat": "{{device}} - Receive",
              "refId": "A",
              "step": 240
            },
            {
              "datasource": {
                "type": "prometheus",
                "uid": "PBFA97CFB590B2093"
              },
              "expr": "rate(node_network_transmit_bytes_total{domain=\"$domain\"}[$__rate_interval])*8",
              "format": "time_series",
              "intervalFactor": 1,
              "legendFormat": "{{device}} - Transmit",
              "refId": "B",
              "step": 240
            }
          ],
          "thresholds": [],
          "timeRegions": [],
          "title": "Network Traffic",
          "tooltip": {
            "shared": true,
            "sort": 0,
            "value_type": "individual"
          },
          "type": "graph",
          "xaxis": {
            "mode": "time",
            "show": true,
            "values": []
          },
          "yaxes": [
            {
              "$$hashKey": "object:5884",
              "format": "bps",
              "label": "bits out (-) / in (+)",
              "logBase": 1,
              "show": true
            },
            {
              "$$hashKey": "object:5885",
              "format": "short",
              "logBase": 1,
              "show": false
            }
          ],
          "yaxis": {
            "align": false
          }
        },
        {
          "aliasColors": {
            "io time": "#890F02"
          },
          "bars": false,
          "dashLength": 10,
          "dashes": false,
          "datasource": {
            "type": "prometheus",
            "uid": "PBFA97CFB590B2093"
          },
          "decimals": 3,
          "description": "",
          "fieldConfig": {
            "defaults": {
              "links": []
            },
            "overrides": []
          },
          "fill": 4,
          "fillGradient": 0,
          "gridPos": {
            "h": 8,
            "w": 12,
            "x": 0,
            "y": 37
          },
          "hiddenSeries": false,
          "id": 212,
          "legend": {
            "alignAsTable": true,
            "avg": true,
            "current": true,
            "max": true,
            "min": true,
            "rightSide": false,
            "show": true,
            "total": false,
            "values": true
          },
          "lines": true,
          "linewidth": 1,
          "links": [],
          "maxPerRow": 6,
          "nullPointMode": "null",
          "options": {
            "alertThreshold": true
          },
          "percentage": false,
          "pluginVersion": "9.0.7",
          "pointradius": 5,
          "points": false,
          "renderer": "flot",
          "seriesOverrides": [],
          "spaceLength": 10,
          "stack": false,
          "steppedLine": false,
          "targets": [
            {
              "datasource": {
                "type": "prometheus",
                "uid": "PBFA97CFB590B2093"
              },
              "expr": "rate(node_disk_io_time_seconds_total{domain=\"$domain\",device=~\"$diskdevices\"} [$__rate_interval])",
              "format": "time_series",
              "hide": false,
              "interval": "",
              "intervalFactor": 1,
              "legendFormat": "{{device}}",
              "refId": "A",
              "step": 240
            }
          ],
          "thresholds": [],
          "timeRegions": [],
          "title": "I/O Utilization",
          "tooltip": {
            "shared": true,
            "sort": 0,
            "value_type": "individual"
          },
          "type": "graph",
          "xaxis": {
            "mode": "time",
            "show": false,
            "values": []
          },
          "yaxes": [
            {
              "$$hashKey": "object:1041",
              "format": "percentunit",
              "label": "%util",
              "logBase": 1,
              "min": "0",
              "show": true
            },
            {
              "$$hashKey": "object:1042",
              "format": "s",
              "label": "",
              "logBase": 1,
              "show": false
            }
          ],
          "yaxis": {
            "align": false
          }
        },
        {
          "aliasColors": {
            "io time": "#890F02"
          },
          "bars": false,
          "dashLength": 10,
          "dashes": false,
          "datasource": {
            "type": "prometheus",
            "uid": "PBFA97CFB590B2093"
          },
          "decimals": 3,
          "description": "",
          "fieldConfig": {
            "defaults": {
              "links": []
            },
            "overrides": []
          },
          "fill": 4,
          "fillGradient": 0,
          "gridPos": {
            "h": 8,
            "w": 12,
            "x": 12,
            "y": 37
          },
          "hiddenSeries": false,
          "id": 210,
          "legend": {
            "alignAsTable": true,
            "avg": true,
            "current": true,
            "max": true,
            "min": true,
            "rightSide": false,
            "show": true,
            "total": false,
            "values": true
          },
          "lines": true,
          "linewidth": 1,
          "links": [],
          "maxPerRow": 6,
          "nullPointMode": "null",
          "options": {
            "alertThreshold": true
          },
          "percentage": false,
          "pluginVersion": "9.0.7",
          "pointradius": 5,
          "points": false,
          "renderer": "flot",
          "seriesOverrides": [
            {
              "alias": "/.*read*./",
              "transform": "negative-Y"
            },
            {
              "alias": "/.*sda.*/",
              "color": "#7EB26D"
            },
            {
              "alias": "/.*sdb.*/",
              "color": "#EAB839"
            },
            {
              "alias": "/.*sdc.*/",
              "color": "#6ED0E0"
            },
            {
              "alias": "/.*sdd.*/",
              "color": "#EF843C"
            },
            {
              "alias": "/.*sde.*/",
              "color": "#E24D42"
            }
          ],
          "spaceLength": 10,
          "stack": false,
          "steppedLine": false,
          "targets": [
            {
              "datasource": {
                "type": "prometheus",
                "uid": "PBFA97CFB590B2093"
              },
              "expr": "rate(node_disk_read_bytes_total{domain=\"$domain\",device=~\"$diskdevices\"}[$__rate_interval])",
              "format": "time_series",
              "hide": false,
              "intervalFactor": 1,
              "legendFormat": "{{device}} - Successfully read bytes",
              "refId": "A",
              "step": 240
            },
            {
              "datasource": {
                "type": "prometheus",
                "uid": "PBFA97CFB590B2093"
              },
              "expr": "rate(node_disk_written_bytes_total{domain=\"$domain\",device=~\"$diskdevices\"}[$__rate_interval])",
              "format": "time_series",
              "hide": false,
              "intervalFactor": 1,
              "legendFormat": "{{device}} - Successfully written bytes",
              "refId": "B",
              "step": 240
            }
          ],
          "thresholds": [],
          "timeRegions": [],
          "title": "I/O Usage Read / Write",
          "tooltip": {
            "shared": true,
            "sort": 0,
            "value_type": "individual"
          },
          "type": "graph",
          "xaxis": {
            "mode": "time",
            "show": false,
            "values": []
          },
          "yaxes": [
            {
              "$$hashKey": "object:965",
              "format": "Bps",
              "label": "bytes read (-) / write (+)",
              "logBase": 1,
              "show": true
            },
            {
              "$$hashKey": "object:966",
              "format": "ms",
              "label": "",
              "logBase": 1,
              "show": true
            }
          ],
          "yaxis": {
            "align": false
          }
        }
      ],
      "repeat": "hypers",
      "repeatDirection": "h",
      "title": "$hypers",
      "type": "row"
    }
  ],
  "refresh": "10s",
  "schemaVersion": 37,
  "style": "dark",
  "tags": [],
  "templating": {
    "list": [
      {
        "current": {
          "selected": false,
          "text": "server",
          "value": "server"
        },
        "datasource": {
          "type": "prometheus",
          "uid": "PBFA97CFB590B2093"
        },
        "definition": "label_values(hypervisor)",
        "hide": 0,
        "includeAll": false,
        "label": "Hypervisors",
        "multi": false,
        "name": "hypers",
        "options": [],
        "query": {
          "query": "label_values(hypervisor)",
          "refId": "StandardVariableQuery"
        },
        "refresh": 1,
        "regex": "",
        "skipUrlSync": false,
        "sort": 0,
        "type": "query"
      },
      {
        "current": {
          "selected": false,
          "text": "server",
          "value": "server"
        },
        "datasource": {
          "type": "prometheus",
          "uid": "PBFA97CFB590B2093"
        },
        "definition": "label_values(isardvdi_hypervisor_scrape_duration_success{hypervisor=\"$hypers\"}, domain)",
        "hide": 2,
        "includeAll": false,
        "label": "Host",
        "multi": false,
        "name": "domain",
        "options": [],
        "query": {
          "query": "label_values(isardvdi_hypervisor_scrape_duration_success{hypervisor=\"$hypers\"}, domain)",
          "refId": "StandardVariableQuery"
        },
        "refresh": 1,
        "regex": "",
        "skipUrlSync": false,
        "sort": 0,
        "type": "query"
      },
      {
        "current": {
          "selected": false,
          "text": "[a-z]+|nvme[0-9]+n[0-9]+|mmcblk[0-9]+",
          "value": "[a-z]+|nvme[0-9]+n[0-9]+|mmcblk[0-9]+"
        },
        "hide": 2,
        "includeAll": false,
        "multi": false,
        "name": "diskdevices",
        "options": [
          {
            "selected": true,
            "text": "[a-z]+|nvme[0-9]+n[0-9]+|mmcblk[0-9]+",
            "value": "[a-z]+|nvme[0-9]+n[0-9]+|mmcblk[0-9]+"
          }
        ],
        "query": "[a-z]+|nvme[0-9]+n[0-9]+|mmcblk[0-9]+",
        "skipUrlSync": false,
        "type": "custom"
      }
    ]
  },
  "time": {
    "from": "now-1h",
    "to": "now"
  },
  "timepicker": {
    "refresh_intervals": [
      "10s",
      "30s",
      "1m",
      "5m",
      "15m",
      "30m",
      "1h",
      "2h",
      "1d"
    ],
    "time_options": [
      "5m",
      "15m",
      "1h",
      "6h",
      "12h",
      "24h",
      "2d",
      "7d",
      "30d"
    ]
  },
  "timezone": "",
  "title": "Info Hypervisors",
  "uid": "9GQgQli4k",
  "version": 1,
  "weekStart": ""
}
