{
  "annotations": {
    "list": [
      {
        "builtIn": 1,
        "datasource": {
          "type": "datasource",
          "uid": "grafana"
        },
        "enable": true,
        "hide": true,
        "iconColor": "rgba(0, 211, 255, 1)",
        "name": "Annotations & Alerts",
        "target": {
          "limit": 100,
          "matchAny": false,
          "tags": [],
          "type": "dashboard"
        },
        "type": "dashboard"
      }
    ]
  },
  "description": "",
  "editable": true,
  "fiscalYearStartMonth": 0,
  "graphTooltip": 0,
  "id": 7,
  "links": [],
  "liveNow": false,
  "panels": [
    {
      "datasource": {
        "uid": "Graphite"
      },
      "gridPos": {
        "h": 8,
        "w": 5,
        "x": 0,
        "y": 0
      },
      "id": 115,
      "options": {
        "maxItems": 10,
        "query": "",
        "showHeadings": false,
        "showRecentlyViewed": false,
        "showSearch": true,
        "showStarred": false,
        "tags": []
      },
      "pluginVersion": "9.1.4",
      "tags": [],
      "targets": [
        {
          "refId": "A",
          "target": ""
        }
      ],
      "title": "Dashboards",
      "transparent": true,
      "type": "dashlist"
    },
    {
      "datasource": {
        "type": "prometheus",
        "uid": "PBFA97CFB590B2093"
      },
      "description": "Total Desktops per categoria",
      "fieldConfig": {
        "defaults": {
          "color": {
            "mode": "thresholds"
          },
          "mappings": [],
          "noValue": "0",
          "thresholds": {
            "mode": "absolute",
            "steps": [
              {
                "color": "dark-yellow",
                "value": null
              }
            ]
          }
        },
        "overrides": []
      },
      "gridPos": {
        "h": 3,
        "w": 2,
        "x": 5,
        "y": 0
      },
      "id": 176,
      "options": {
        "colorMode": "background",
        "graphMode": "none",
        "justifyMode": "auto",
        "orientation": "auto",
        "reduceOptions": {
          "calcs": [
            "lastNotNull"
          ],
          "fields": "",
          "values": false
        },
        "text": {
          "valueSize": 30
        },
        "textMode": "auto"
      },
      "pluginVersion": "9.1.4",
      "targets": [
        {
          "datasource": {
            "type": "prometheus",
            "uid": "PBFA97CFB590B2093"
          },
          "expr": "isardvdi_isardvdi_api_desktop_number_category{category=\"$category\"}",
          "query": "from(bucket: \"isardvdi-go\")\n  |> range(start: v.timeRangeStart, stop: v.timeRangeStop)\n  |> filter(fn: (r) => r[\"_measurement\"] == \"isardvdi-api\")\n  |> filter(fn: (r) => r[\"_field\"] == \"desktops\")\n  |> yield()",
          "refId": "A"
        }
      ],
      "title": "Total Desktops",
      "type": "stat"
    },
    {
      "datasource": {
        "type": "prometheus",
        "uid": "PBFA97CFB590B2093"
      },
      "description": "Total Users per categoria",
      "fieldConfig": {
        "defaults": {
          "color": {
            "mode": "thresholds"
          },
          "mappings": [],
          "noValue": "0",
          "thresholds": {
            "mode": "absolute",
            "steps": [
              {
                "color": "#0da1a8",
                "value": null
              }
            ]
          }
        },
        "overrides": []
      },
      "gridPos": {
        "h": 3,
        "w": 2,
        "x": 7,
        "y": 0
      },
      "id": 177,
      "options": {
        "colorMode": "background",
        "graphMode": "none",
        "justifyMode": "auto",
        "orientation": "auto",
        "reduceOptions": {
          "calcs": [
            "lastNotNull"
          ],
          "fields": "",
          "values": false
        },
        "text": {
          "valueSize": 30
        },
        "textMode": "auto"
      },
      "pluginVersion": "9.1.4",
      "targets": [
        {
          "datasource": {
            "type": "prometheus",
            "uid": "PBFA97CFB590B2093"
          },
          "expr": "sum(count_values by(role) (\"tipo\", isardvdi_isardvdi_api_user_info{category=\"$category\"}))",
          "query": "from(bucket: \"isardvdi-go\")\n  |> range(start: -100000000000000s)\n  |> filter(fn: (r) => r[\"_measurement\"] == \"isardvdi-authentication\")\n  |> filter(fn: (r) => r[\"_field\"] == \"login\")\n  |> aggregateWindow(every: v.windowPeriod, fn: last, createEmpty: false)\n  |> count(column: \"_value\")\n  |> unique(column: \"id\")\n  |> keep(columns: [\"_value\"])\n  |> count(column: \"_value\")\n  |> yield()",
          "refId": "A"
        }
      ],
      "title": "Total Users",
      "type": "stat"
    },
    {
      "datasource": {
        "type": "prometheus",
        "uid": "PBFA97CFB590B2093"
      },
      "description": "Total Templates per categoria",
      "fieldConfig": {
        "defaults": {
          "color": {
            "mode": "thresholds"
          },
          "mappings": [],
          "noValue": "0",
          "thresholds": {
            "mode": "absolute",
            "steps": [
              {
                "color": "#f4a743",
                "value": null
              }
            ]
          }
        },
        "overrides": []
      },
      "gridPos": {
        "h": 3,
        "w": 2,
        "x": 9,
        "y": 0
      },
      "id": 175,
      "maxDataPoints": 85,
      "options": {
        "colorMode": "background",
        "graphMode": "none",
        "justifyMode": "auto",
        "orientation": "auto",
        "reduceOptions": {
          "calcs": [
            "lastNotNull"
          ],
          "fields": "",
          "values": false
        },
        "text": {
          "valueSize": 30
        },
        "textMode": "auto"
      },
      "pluginVersion": "9.1.4",
      "targets": [
        {
          "datasource": {
            "type": "prometheus",
            "uid": "PBFA97CFB590B2093"
          },
          "expr": "isardvdi_isardvdi_api_template_number_category{category=\"$category\"}",
          "query": "from(bucket: \"isardvdi-go\")\n  |> range(start: v.timeRangeStart, stop: v.timeRangeStop)\n  |> filter(fn: (r) => r[\"_measurement\"] == \"isardvdi-api\")\n  |> filter(fn: (r) => r[\"_field\"] == \"templates\")\n  |> aggregateWindow(every: v.windowPeriod, fn: last, createEmpty: false)\n  |> yield()",
          "refId": "A"
        }
      ],
      "title": "Total Templates",
      "type": "stat"
    },
    {
      "datasource": {
        "type": "prometheus",
        "uid": "PBFA97CFB590B2093"
      },
      "description": "Non available RAM memory",
      "fieldConfig": {
        "defaults": {
          "color": {
            "mode": "thresholds"
          },
          "decimals": 0,
          "mappings": [],
          "max": 100,
          "min": 0,
          "thresholds": {
            "mode": "absolute",
            "steps": [
              {
                "color": "rgba(50, 172, 45, 0.97)",
                "value": null
              },
              {
                "color": "rgba(237, 129, 40, 0.89)",
                "value": 80
              },
              {
                "color": "rgba(245, 54, 54, 0.9)",
                "value": 90
              }
            ]
          },
          "unit": "percent"
        },
        "overrides": []
      },
      "gridPos": {
        "h": 4,
        "w": 2,
        "x": 11,
        "y": 0
      },
      "hideTimeOverride": false,
      "id": 206,
      "links": [],
      "options": {
        "orientation": "horizontal",
        "reduceOptions": {
          "calcs": [
            "lastNotNull"
          ],
          "fields": "",
          "values": false
        },
        "showThresholdLabels": false,
        "showThresholdMarkers": true
      },
      "pluginVersion": "9.1.4",
      "targets": [
        {
          "datasource": {
            "type": "prometheus",
            "uid": "PBFA97CFB590B2093"
          },
          "editorMode": "code",
          "expr": "100 - ((node_memory_MemAvailable_bytes{domain=\"$domain\"} * 100) / node_memory_MemTotal_bytes{domain=\"$domain\"})",
          "format": "time_series",
          "hide": false,
          "intervalFactor": 1,
          "range": true,
          "refId": "B",
          "step": 240
        }
      ],
      "title": "RAM %",
      "type": "gauge"
    },
    {
      "datasource": {
        "type": "prometheus",
        "uid": "PBFA97CFB590B2093"
      },
      "fieldConfig": {
        "defaults": {
          "color": {
            "fixedColor": "#0da1a8",
            "mode": "fixed"
          },
          "custom": {
            "hideFrom": {
              "legend": false,
              "tooltip": false,
              "viz": false
            }
          },
          "mappings": []
        },
        "overrides": [
          {
            "matcher": {
              "id": "byName",
              "options": "admin"
            },
            "properties": [
              {
                "id": "color",
                "value": {
                  "fixedColor": "light-red",
                  "mode": "fixed"
                }
              }
            ]
          },
          {
            "matcher": {
              "id": "byName",
              "options": "advanced"
            },
            "properties": [
              {
                "id": "color",
                "value": {
                  "fixedColor": "light-orange",
                  "mode": "fixed"
                }
              }
            ]
          },
          {
            "matcher": {
              "id": "byName",
              "options": "manager"
            },
            "properties": [
              {
                "id": "color",
                "value": {
                  "fixedColor": "light-blue",
                  "mode": "fixed"
                }
              }
            ]
          },
          {
            "matcher": {
              "id": "byName",
              "options": "user"
            },
            "properties": [
              {
                "id": "color",
                "value": {
                  "fixedColor": "light-green",
                  "mode": "fixed"
                }
              }
            ]
          }
        ]
      },
      "gridPos": {
        "h": 8,
        "w": 4,
        "x": 13,
        "y": 0
      },
      "id": 224,
      "options": {
        "displayLabels": [],
        "legend": {
          "displayMode": "table",
          "placement": "right",
          "showLegend": true,
          "values": [
            "value"
          ],
          "width": 20
        },
        "pieType": "pie",
        "reduceOptions": {
          "calcs": [
            "lastNotNull"
          ],
          "fields": "",
          "values": false
        },
        "tooltip": {
          "mode": "single",
          "sort": "none"
        }
      },
      "pluginVersion": "9.0.7",
      "targets": [
        {
          "datasource": {
            "type": "prometheus",
            "uid": "PBFA97CFB590B2093"
          },
          "editorMode": "code",
          "exemplar": false,
          "expr": "count_values by(role) (\"categoria\", isardvdi_isardvdi_api_user_info{category=\"$category\"})",
          "instant": false,
          "legendFormat": "{{role}}",
          "range": true,
          "refId": "A"
        }
      ],
      "title": "Usuaris per Categoria",
      "type": "piechart"
    },
    {
      "datasource": {
        "type": "prometheus",
        "uid": "PBFA97CFB590B2093"
      },
      "fieldConfig": {
        "defaults": {
          "color": {
            "fixedColor": "#0da1a8",
            "mode": "fixed"
          },
          "custom": {
            "hideFrom": {
              "legend": false,
              "tooltip": false,
              "viz": false
            }
          },
          "mappings": []
        },
        "overrides": [
          {
            "matcher": {
              "id": "byName",
              "options": "admin"
            },
            "properties": [
              {
                "id": "color",
                "value": {
                  "fixedColor": "light-red",
                  "mode": "fixed"
                }
              }
            ]
          },
          {
            "matcher": {
              "id": "byName",
              "options": "advanced"
            },
            "properties": [
              {
                "id": "color",
                "value": {
                  "fixedColor": "light-orange",
                  "mode": "fixed"
                }
              }
            ]
          },
          {
            "matcher": {
              "id": "byName",
              "options": "manager"
            },
            "properties": [
              {
                "id": "color",
                "value": {
                  "fixedColor": "light-blue",
                  "mode": "fixed"
                }
              }
            ]
          },
          {
            "matcher": {
              "id": "byName",
              "options": "user"
            },
            "properties": [
              {
                "id": "color",
                "value": {
                  "fixedColor": "light-green",
                  "mode": "fixed"
                }
              }
            ]
          }
        ]
      },
      "gridPos": {
        "h": 8,
        "w": 4,
        "x": 17,
        "y": 0
      },
      "id": 226,
      "options": {
        "displayLabels": [],
        "legend": {
          "displayMode": "table",
          "placement": "right",
          "showLegend": true,
          "values": [
            "value"
          ],
          "width": 20
        },
        "pieType": "pie",
        "reduceOptions": {
          "calcs": [
            "lastNotNull"
          ],
          "fields": "",
          "values": false
        },
        "tooltip": {
          "mode": "single",
          "sort": "none"
        }
      },
      "pluginVersion": "9.0.7",
      "targets": [
        {
          "datasource": {
            "type": "prometheus",
            "uid": "PBFA97CFB590B2093"
          },
          "editorMode": "builder",
          "exemplar": false,
          "expr": "count_values by(role) (\"categoria\", isardvdi_isardvdi_api_user_info{group=\"$group\"})",
          "instant": false,
          "legendFormat": "{{role}}",
          "range": true,
          "refId": "A"
        }
      ],
      "title": "Usuaris per Grup",
      "type": "piechart"
    },
    {
      "datasource": {
        "type": "prometheus",
        "uid": "PBFA97CFB590B2093"
      },
      "fieldConfig": {
        "defaults": {
          "color": {
            "mode": "thresholds"
          },
          "mappings": [],
          "noValue": "0",
          "thresholds": {
            "mode": "absolute",
            "steps": [
              {
                "color": "dark-purple",
                "value": null
              }
            ]
          }
        },
        "overrides": []
      },
      "gridPos": {
        "h": 3,
        "w": 2,
        "x": 5,
        "y": 3
      },
      "id": 150,
      "options": {
        "colorMode": "background",
        "graphMode": "none",
        "justifyMode": "auto",
        "orientation": "auto",
        "reduceOptions": {
          "calcs": [
            "lastNotNull"
          ],
          "fields": "",
          "values": false
        },
        "text": {
          "valueSize": 30
        },
        "textMode": "auto"
      },
      "pluginVersion": "9.1.4",
      "targets": [
        {
          "datasource": {
            "type": "prometheus",
            "uid": "PBFA97CFB590B2093"
          },
          "editorMode": "code",
          "exemplar": false,
          "expr": "count(isardvdi_domain_vcpu_current * on (desktop) label_replace(isardvdi_isardvdi_api_desktop_info * on (user) group_left label_replace(isardvdi_isardvdi_api_user_info{category=\"$category\"}, \"user\", \"$1\", \"id\", \"(.*)\"), \"desktop\", \"$1\", \"id\", \"(.*)\")) or vector(0)",
          "instant": true,
          "query": "from(bucket: \"isardvdi-go\")\n  |> range(start: -10s, stop: now())\n  |> filter(fn: (r) =>\n    r[\"_measurement\"] == \"domain\"\n  )\n  |> keep(columns: [\"_time\", \"id\"])\n  |> group()\n  |> unique(column: \"id\")\n  |> count(column: \"id\")\n  |> yield()",
          "range": false,
          "refId": "A"
        }
      ],
      "title": "Desktops started",
      "type": "stat"
    },
    {
      "datasource": {
        "type": "prometheus",
        "uid": "PBFA97CFB590B2093"
      },
      "description": "online users in the last 5 minutes",
      "fieldConfig": {
        "defaults": {
          "color": {
            "mode": "thresholds"
          },
          "mappings": [],
          "noValue": "0",
          "thresholds": {
            "mode": "absolute",
            "steps": [
              {
                "color": "semi-dark-green",
                "value": null
              }
            ]
          }
        },
        "overrides": []
      },
      "gridPos": {
        "h": 3,
        "w": 2,
        "x": 7,
        "y": 3
      },
      "id": 178,
      "options": {
        "colorMode": "background",
        "graphMode": "none",
        "justifyMode": "auto",
        "orientation": "auto",
        "reduceOptions": {
          "calcs": [
            "lastNotNull"
          ],
          "fields": "",
          "values": false
        },
        "text": {
          "valueSize": 30
        },
        "textMode": "auto"
      },
      "pluginVersion": "9.1.4",
      "targets": [
        {
          "datasource": {
            "type": "prometheus",
            "uid": "PBFA97CFB590B2093"
          },
          "expr": "count(count by(id) (count_over_time(isardvdi_isardvdi_authentication_login_success[5m]))) or vector(0)",
          "query": "from(bucket: \"isardvdi-go\")\n  |> range(start: -10s, stop: v.timeRangeStop)\n  |> filter(fn: (r) => r[\"_measurement\"] == \"isardvdi-authentication\")\n  |> filter(fn: (r) => r[\"_field\"] == \"login\")\n  |> aggregateWindow(every: 30s, fn: last, createEmpty: false)\n  |> unique(column: \"id\")\n  |> count(column: \"_value\")\n  |> keep(columns: [\"_value\"])\n  |> count(column: \"_value\")\n  |> yield()",
          "refId": "A"
        }
      ],
      "title": "Users Online",
      "type": "stat"
    },
    {
      "datasource": {
        "type": "prometheus",
        "uid": "PBFA97CFB590B2093"
      },
      "fieldConfig": {
        "defaults": {
          "color": {
            "mode": "thresholds"
          },
          "mappings": [],
          "noValue": "0",
          "thresholds": {
            "mode": "absolute",
            "steps": [
              {
                "color": "semi-dark-green",
                "value": null
              }
            ]
          }
        },
        "overrides": []
      },
      "gridPos": {
        "h": 3,
        "w": 2,
        "x": 9,
        "y": 3
      },
      "id": 184,
      "options": {
        "colorMode": "background",
        "graphMode": "area",
        "justifyMode": "auto",
        "orientation": "auto",
        "reduceOptions": {
          "calcs": [
            "lastNotNull"
          ],
          "fields": "",
          "values": false
        },
        "textMode": "auto"
      },
      "pluginVersion": "9.1.4",
      "targets": [
        {
          "datasource": {
            "type": "prometheus",
            "uid": "PBFA97CFB590B2093"
          },
          "editorMode": "builder",
          "expr": "isardvdi_domain_scrape_duration_seconds{domain=\"$domain\"}",
          "range": true,
          "refId": "A"
        }
      ],
      "title": "Scrape Time",
      "type": "stat"
    },
    {
      "datasource": {
        "type": "prometheus",
        "uid": "PBFA97CFB590B2093"
      },
      "fieldConfig": {
        "defaults": {
          "color": {
            "mode": "thresholds"
          },
          "mappings": [],
          "noValue": "0",
          "thresholds": {
            "mode": "absolute",
            "steps": [
              {
                "color": "green",
                "value": null
              }
            ]
          },
          "unit": "none"
        },
        "overrides": []
      },
      "gridPos": {
        "h": 2,
        "w": 2,
        "x": 11,
        "y": 4
      },
      "id": 216,
      "links": [],
      "maxDataPoints": 100,
      "options": {
        "colorMode": "none",
        "graphMode": "none",
        "justifyMode": "auto",
        "orientation": "auto",
        "reduceOptions": {
          "calcs": [
            "lastNotNull"
          ],
          "fields": "/^sum\\(isardvdi_domain_vcpu_current \\* on \\(desktop\\) label_replace\\(isardvdi_isardvdi_api_desktop_info \\* on \\(user\\) group_left label_replace\\(isardvdi_isardvdi_api_user_info\\{category=\"default\"\\}, \"user\", \"\\$1\", \"id\", \"\\(\\.\\*\\)\"\\), \"desktop\", \"\\$1\", \"id\", \"\\(\\.\\*\\)\"\\)\\)$/",
          "values": false
        },
        "text": {},
        "textMode": "auto"
      },
      "pluginVersion": "9.1.4",
      "targets": [
        {
          "datasource": {
            "type": "prometheus",
            "uid": "PBFA97CFB590B2093"
          },
          "editorMode": "code",
          "exemplar": false,
          "expr": "sum(isardvdi_domain_vcpu_current * on (desktop) label_replace(isardvdi_isardvdi_api_desktop_info * on (user) group_left label_replace(isardvdi_isardvdi_api_user_info{category=\"$category\"}, \"user\", \"$1\", \"id\", \"(.*)\"), \"desktop\", \"$1\", \"id\", \"(.*)\"))",
          "format": "time_series",
          "hide": false,
          "instant": false,
          "query": "from(bucket: \"isardvdi-go\")\n  |> range(start: -10s, stop: now())\n  |> filter(fn: (r) => \n    r[\"_measurement\"] == \"domain\" and\n    r[\"hypervisor\"] == \"${hypers}\" and\n    r[\"_field\"] == \"vcpu_current\"\n  )\n  |> group(columns: [\"id\"])\n  |> sort(columns: [\"_time\"])\n  |> last()\n  |> keep(columns: [\"_time\", \"_value\"])\n  |> sum()",
          "range": true,
          "refId": "A"
        }
      ],
      "title": "vCPU",
      "type": "stat"
    },
    {
      "datasource": {
        "type": "prometheus",
        "uid": "PBFA97CFB590B2093"
      },
      "description": "Escriptoris i Plantilles per categoria",
      "fieldConfig": {
        "defaults": {
          "color": {
            "mode": "palette-classic"
          },
          "custom": {
            "axisCenteredZero": false,
            "axisColorMode": "text",
            "axisLabel": "",
            "axisPlacement": "auto",
            "barAlignment": 0,
            "drawStyle": "line",
            "fillOpacity": 10,
            "gradientMode": "none",
            "hideFrom": {
              "legend": false,
              "tooltip": false,
              "viz": false
            },
            "lineInterpolation": "smooth",
            "lineStyle": {
              "fill": "solid"
            },
            "lineWidth": 1,
            "pointSize": 5,
            "scaleDistribution": {
              "type": "linear"
            },
            "showPoints": "never",
            "spanNulls": true,
            "stacking": {
              "group": "A",
              "mode": "none"
            },
            "thresholdsStyle": {
              "mode": "off"
            }
          },
          "mappings": [],
          "min": 0,
          "thresholds": {
            "mode": "absolute",
            "steps": [
              {
                "color": "green",
                "value": null
              },
              {
                "color": "red",
                "value": 80
              }
            ]
          },
          "unit": "short"
        },
        "overrides": [
          {
            "matcher": {
              "id": "byName",
              "options": "Plantilles Creades"
            },
            "properties": [
              {
                "id": "color",
                "value": {
                  "fixedColor": "#2fe0d4",
                  "mode": "fixed"
                }
              },
              {
                "id": "custom.axisPlacement",
                "value": "right"
              }
            ]
          },
          {
            "matcher": {
              "id": "byName",
              "options": "Escriptoris Creats"
            },
            "properties": [
              {
                "id": "color",
                "value": {
                  "fixedColor": "#f4a743",
                  "mode": "fixed"
                }
              }
            ]
          }
        ]
      },
      "gridPos": {
        "h": 10,
        "w": 12,
        "x": 0,
        "y": 8
      },
      "id": 188,
      "options": {
        "legend": {
          "calcs": [
            "lastNotNull"
          ],
          "displayMode": "list",
          "placement": "bottom",
          "showLegend": true
        },
        "tooltip": {
          "mode": "single",
          "sort": "none"
        }
      },
      "pluginVersion": "8.2.5",
      "targets": [
        {
          "datasource": {
            "type": "prometheus",
            "uid": "PBFA97CFB590B2093"
          },
          "editorMode": "builder",
          "exemplar": false,
          "expr": "isardvdi_isardvdi_api_desktop_number_category{category=\"$category\"}",
          "hide": false,
          "instant": false,
          "legendFormat": "Escriptoris Creats",
          "query": " Desktops = from(bucket: \"isardvdi-go\")\n  |> range(start: v.timeRangeStart, stop: v.timeRangeStop)\n  |> filter(fn: (r) =>\n    r[\"_measurement\"] == \"domain\" \n  )\n  |> keep(columns: [\"_time\", \"id\"])\n  |> group()\n  |> aggregateWindow(every: 30s, column: \"id\", fn:(column, tables=<-) => tables \n    |> unique(column: column)\n    |> count(column:column),)\n  |> rename(columns: {id: \"_value\"})\n  |> map(fn: (r) => ({ Desktops:r._value, _time:r._time }))\n  |> yield()\nVisors = from(bucket: \"isardvdi-tasks\")\n  |> range(start: -10s, stop: v.timeRangeStop)\n  |> filter(fn: (r) => r[\"_measurement\"] == \"hypervisor\")\n  |> filter(fn: (r) => r[\"_field\"] == \"visors_started\")\n  |> aggregateWindow(every: v.windowPeriod, fn: mean, createEmpty: false)\n    |> map(fn: (r) => ({ Visors:r._value, _time:r._time  }))\n  |> yield(name: \"mean\")\n\n",
          "range": true,
          "refId": "A"
        },
        {
          "datasource": {
            "type": "prometheus",
            "uid": "PBFA97CFB590B2093"
          },
          "editorMode": "builder",
          "expr": "isardvdi_isardvdi_api_template_number_category{category=\"$category\"}",
          "hide": false,
          "legendFormat": "Plantilles Creades",
          "range": true,
          "refId": "B"
        }
      ],
      "title": "Escriptoris i Plantilles",
      "type": "timeseries"
    },
    {
      "datasource": {
        "type": "prometheus",
        "uid": "PBFA97CFB590B2093"
      },
      "description": "Escriptoris Arrancats per categoria",
      "fieldConfig": {
        "defaults": {
          "color": {
            "mode": "palette-classic"
          },
          "custom": {
            "axisCenteredZero": false,
            "axisColorMode": "text",
            "axisLabel": "",
            "axisPlacement": "auto",
            "barAlignment": 0,
            "drawStyle": "line",
            "fillOpacity": 10,
            "gradientMode": "none",
            "hideFrom": {
              "legend": false,
              "tooltip": false,
              "viz": false
            },
            "lineInterpolation": "smooth",
            "lineStyle": {
              "fill": "solid"
            },
            "lineWidth": 1,
            "pointSize": 5,
            "scaleDistribution": {
              "type": "linear"
            },
            "showPoints": "never",
            "spanNulls": true,
            "stacking": {
              "group": "A",
              "mode": "none"
            },
            "thresholdsStyle": {
              "mode": "off"
            }
          },
          "mappings": [],
          "min": 0,
          "thresholds": {
            "mode": "absolute",
            "steps": [
              {
                "color": "green",
                "value": null
              },
              {
                "color": "red",
                "value": 80
              }
            ]
          },
          "unit": "short"
        },
        "overrides": [
          {
            "matcher": {
              "id": "byName",
              "options": "Escriptoris"
            },
            "properties": [
              {
                "id": "color",
                "value": {
                  "fixedColor": "purple",
                  "mode": "fixed"
                }
              }
            ]
          }
        ]
      },
      "gridPos": {
        "h": 10,
        "w": 12,
        "x": 12,
        "y": 8
      },
      "id": 190,
      "options": {
        "legend": {
          "calcs": [
            "lastNotNull"
          ],
          "displayMode": "list",
          "placement": "bottom",
          "showLegend": true
        },
        "tooltip": {
          "mode": "single",
          "sort": "none"
        }
      },
      "pluginVersion": "8.2.5",
      "targets": [
        {
          "datasource": {
            "type": "prometheus",
            "uid": "PBFA97CFB590B2093"
          },
          "editorMode": "code",
          "expr": "count(isardvdi_domain_vcpu_current * on (desktop) label_replace(isardvdi_isardvdi_api_desktop_info * on (user) group_left label_replace(isardvdi_isardvdi_api_user_info{category=\"$category\"}, \"user\", \"$1\", \"id\", \"(.*)\"), \"desktop\", \"$1\", \"id\", \"(.*)\")) or vector(0)",
          "hide": false,
          "legendFormat": "Escriptoris",
          "range": true,
          "refId": "B"
        }
      ],
      "title": "Escriptoris Arrencats",
      "type": "timeseries"
    },
    {
      "datasource": {
        "type": "prometheus",
        "uid": "PBFA97CFB590B2093"
      },
      "description": "Usuaris Totals i Tipus per categoria",
      "fieldConfig": {
        "defaults": {
          "color": {
            "mode": "palette-classic"
          },
          "custom": {
            "axisCenteredZero": false,
            "axisColorMode": "text",
            "axisLabel": "",
            "axisPlacement": "auto",
            "barAlignment": 0,
            "drawStyle": "line",
            "fillOpacity": 40,
            "gradientMode": "opacity",
            "hideFrom": {
              "legend": false,
              "tooltip": false,
              "viz": false
            },
            "lineInterpolation": "linear",
            "lineStyle": {
              "fill": "solid"
            },
            "lineWidth": 2,
            "pointSize": 5,
            "scaleDistribution": {
              "type": "linear"
            },
            "showPoints": "never",
            "spanNulls": true,
            "stacking": {
              "group": "A",
              "mode": "none"
            },
            "thresholdsStyle": {
              "mode": "off"
            }
          },
          "mappings": [],
          "min": 0,
          "thresholds": {
            "mode": "absolute",
            "steps": [
              {
                "color": "green",
                "value": null
              },
              {
                "color": "red",
                "value": 80
              }
            ]
          },
          "unit": "none"
        },
        "overrides": [
          {
            "matcher": {
              "id": "byName",
              "options": "Centres"
            },
            "properties": [
              {
                "id": "unit",
                "value": "none"
              }
            ]
          },
          {
            "matcher": {
              "id": "byName",
              "options": "Usuaris Totals"
            },
            "properties": [
              {
                "id": "color",
                "value": {
                  "fixedColor": "#0da1a8",
                  "mode": "fixed"
                }
              },
              {
                "id": "custom.lineWidth",
                "value": 4
              }
            ]
          }
        ]
      },
      "gridPos": {
        "h": 10,
        "w": 12,
        "x": 0,
        "y": 18
      },
      "id": 196,
      "links": [],
      "options": {
        "legend": {
          "calcs": [
            "lastNotNull"
          ],
          "displayMode": "table",
          "placement": "bottom",
          "showLegend": true
        },
        "tooltip": {
          "mode": "multi",
          "sort": "none"
        }
      },
      "pluginVersion": "8.5.2",
      "targets": [
        {
          "alias": "CPU%",
          "datasource": {
            "type": "prometheus",
            "uid": "PBFA97CFB590B2093"
          },
          "editorMode": "builder",
          "exemplar": true,
          "expr": "sum(count_values by(role) (\"tipo\", isardvdi_isardvdi_api_user_info{category=\"$category\"}))",
          "groupBy": [
            {
              "params": [
                "$__interval"
              ],
              "type": "time"
            },
            {
              "params": [
                "none"
              ],
              "type": "fill"
            }
          ],
          "hide": false,
          "interval": "",
          "legendFormat": "Usuaris Totals",
          "measurement": "docker",
          "orderByTime": "ASC",
          "policy": "default",
          "query": "SELECT mean(\"cpu_percent\") FROM \"$host.docker\" WHERE $timeFilter GROUP BY time($__interval) fill(none)",
          "range": true,
          "rawQuery": false,
          "refId": "A",
          "resultFormat": "time_series",
          "select": [
            [
              {
                "params": [
                  "cpu_percent"
                ],
                "type": "field"
              },
              {
                "params": [],
                "type": "mean"
              }
            ]
          ],
          "tags": [
            {
              "key": "name",
              "operator": "=~",
              "value": "/^$container$/"
            },
            {
              "condition": "AND",
              "key": "hostname",
              "operator": "=~",
              "value": "/^$host$/"
            }
          ]
        },
        {
          "datasource": {
            "type": "prometheus",
            "uid": "PBFA97CFB590B2093"
          },
          "editorMode": "builder",
          "expr": "count_values by(role) (\"categoria\", isardvdi_isardvdi_api_user_info{category=\"$category\"})",
          "hide": false,
          "legendFormat": "{{role}}",
          "range": true,
          "refId": "C"
        }
      ],
      "title": "Usuaris Totals i Tipus",
      "type": "timeseries"
    },
    {
      "datasource": {
        "type": "prometheus",
        "uid": "PBFA97CFB590B2093"
      },
      "description": "Usuaris dels últims mesos per categoria",
      "fieldConfig": {
        "defaults": {
          "color": {
            "mode": "palette-classic"
          },
          "custom": {
            "axisCenteredZero": false,
            "axisColorMode": "text",
            "axisLabel": "",
            "axisPlacement": "auto",
            "barAlignment": 0,
            "drawStyle": "line",
            "fillOpacity": 25,
            "gradientMode": "hue",
            "hideFrom": {
              "legend": false,
              "tooltip": false,
              "viz": false
            },
            "lineInterpolation": "smooth",
            "lineStyle": {
              "fill": "solid"
            },
            "lineWidth": 2,
            "pointSize": 5,
            "scaleDistribution": {
              "type": "linear"
            },
            "showPoints": "never",
            "spanNulls": true,
            "stacking": {
              "group": "A",
              "mode": "none"
            },
            "thresholdsStyle": {
              "mode": "off"
            }
          },
          "mappings": [],
          "min": 0,
          "thresholds": {
            "mode": "absolute",
            "steps": [
              {
                "color": "green",
                "value": null
              },
              {
                "color": "red",
                "value": 80
              }
            ]
          },
          "unit": "none"
        },
        "overrides": [
          {
            "matcher": {
              "id": "byName",
              "options": "Usuaris dels últims mesos"
            },
            "properties": [
              {
                "id": "color",
                "value": {
                  "fixedColor": "#863a3a",
                  "mode": "fixed"
                }
              },
              {
                "id": "custom.lineWidth",
                "value": 4
              }
            ]
          }
        ]
      },
      "gridPos": {
        "h": 10,
        "w": 12,
        "x": 12,
        "y": 18
      },
      "id": 225,
      "links": [],
      "options": {
        "legend": {
          "calcs": [
            "lastNotNull"
          ],
          "displayMode": "table",
          "placement": "bottom",
          "showLegend": true
        },
        "tooltip": {
          "mode": "multi",
          "sort": "none"
        }
      },
      "pluginVersion": "8.5.2",
      "targets": [
        {
          "alias": "CPU%",
          "datasource": {
            "type": "prometheus",
            "uid": "PBFA97CFB590B2093"
          },
          "editorMode": "builder",
          "exemplar": false,
          "expr": "sum(count_values by(role) (\"tipo\", count_over_time(isardvdi_isardvdi_api_user_info{category=\"$category\"}[60d]))) or vector(0)",
          "groupBy": [
            {
              "params": [
                "$__interval"
              ],
              "type": "time"
            },
            {
              "params": [
                "none"
              ],
              "type": "fill"
            }
          ],
          "hide": false,
          "instant": false,
          "interval": "",
          "legendFormat": "Usuaris dels últims mesos",
          "measurement": "docker",
          "orderByTime": "ASC",
          "policy": "default",
          "query": "SELECT mean(\"cpu_percent\") FROM \"$host.docker\" WHERE $timeFilter GROUP BY time($__interval) fill(none)",
          "range": true,
          "rawQuery": false,
          "refId": "A",
          "resultFormat": "time_series",
          "select": [
            [
              {
                "params": [
                  "cpu_percent"
                ],
                "type": "field"
              },
              {
                "params": [],
                "type": "mean"
              }
            ]
          ],
          "tags": [
            {
              "key": "name",
              "operator": "=~",
              "value": "/^$container$/"
            },
            {
              "condition": "AND",
              "key": "hostname",
              "operator": "=~",
              "value": "/^$host$/"
            }
          ]
        }
      ],
      "title": "Usuaris dels últims mesos",
      "type": "timeseries"
    },
    {
      "datasource": {
        "type": "prometheus",
        "uid": "PBFA97CFB590B2093"
      },
      "description": "vCPU per categoria",
      "fieldConfig": {
        "defaults": {
          "color": {
            "mode": "palette-classic"
          },
          "custom": {
            "axisCenteredZero": false,
            "axisColorMode": "text",
            "axisLabel": "",
            "axisPlacement": "auto",
            "barAlignment": 0,
            "drawStyle": "line",
            "fillOpacity": 10,
            "gradientMode": "none",
            "hideFrom": {
              "legend": false,
              "tooltip": false,
              "viz": false
            },
            "lineInterpolation": "smooth",
            "lineWidth": 1,
            "pointSize": 5,
            "scaleDistribution": {
              "type": "linear"
            },
            "showPoints": "never",
            "spanNulls": false,
            "stacking": {
              "group": "A",
              "mode": "none"
            },
            "thresholdsStyle": {
              "mode": "off"
            }
          },
          "mappings": [],
          "min": 0,
          "noValue": "0",
          "thresholds": {
            "mode": "absolute",
            "steps": [
              {
                "color": "green",
                "value": null
              }
            ]
          },
          "unit": "none"
        },
        "overrides": [
          {
            "matcher": {
              "id": "byName",
              "options": "vCPU"
            },
            "properties": [
              {
                "id": "color",
                "value": {
                  "fixedColor": "#7eac36",
                  "mode": "fixed"
                }
              }
            ]
          }
        ]
      },
      "gridPos": {
        "h": 10,
        "w": 12,
        "x": 0,
        "y": 28
      },
      "id": 212,
      "links": [],
      "maxDataPoints": 100,
      "options": {
        "legend": {
          "calcs": [
            "lastNotNull"
          ],
          "displayMode": "list",
          "placement": "bottom",
          "showLegend": true
        },
        "tooltip": {
          "mode": "single",
          "sort": "none"
        }
      },
      "pluginVersion": "9.0.7",
      "targets": [
        {
          "datasource": {
            "type": "prometheus",
            "uid": "PBFA97CFB590B2093"
          },
          "editorMode": "code",
          "exemplar": false,
          "expr": "sum(isardvdi_domain_vcpu_current * on (desktop) label_replace(isardvdi_isardvdi_api_desktop_info * on (user) group_left label_replace(isardvdi_isardvdi_api_user_info{category=\"$category\"}, \"user\", \"$1\", \"id\", \"(.*)\"), \"desktop\", \"$1\", \"id\", \"(.*)\"))",
          "hide": false,
          "instant": false,
          "legendFormat": "vCPU",
          "query": "from(bucket: \"isardvdi-go\")\n  |> range(start: -10s, stop: now())\n  |> filter(fn: (r) => \n    r[\"_measurement\"] == \"domain\" and\n    r[\"hypervisor\"] == \"${hypers}\" and\n    r[\"_field\"] == \"vcpu_current\"\n  )\n  |> group(columns: [\"id\"])\n  |> sort(columns: [\"_time\"])\n  |> last()\n  |> keep(columns: [\"_time\", \"_value\"])\n  |> sum()",
          "range": true,
          "refId": "A"
        }
      ],
      "title": "vCPU",
      "type": "timeseries"
    },
    {
      "datasource": {
        "type": "prometheus",
        "uid": "PBFA97CFB590B2093"
      },
      "description": "",
      "fieldConfig": {
        "defaults": {
          "color": {
            "fixedColor": "#b91e8e",
            "mode": "fixed"
          },
          "custom": {
            "axisCenteredZero": false,
            "axisColorMode": "text",
            "axisLabel": "",
            "axisPlacement": "auto",
            "barAlignment": 0,
            "drawStyle": "line",
            "fillOpacity": 10,
            "gradientMode": "none",
            "hideFrom": {
              "legend": false,
              "tooltip": false,
              "viz": false
            },
            "lineInterpolation": "smooth",
            "lineWidth": 1,
            "pointSize": 5,
            "scaleDistribution": {
              "type": "linear"
            },
            "showPoints": "auto",
            "spanNulls": false,
            "stacking": {
              "group": "A",
              "mode": "none"
            },
            "thresholdsStyle": {
              "mode": "off"
            }
          },
          "decimals": 0,
          "displayName": "RAM Utilitzada",
          "mappings": [],
          "max": 100,
          "min": 0,
          "thresholds": {
            "mode": "absolute",
            "steps": [
              {
                "color": "green",
                "value": null
              },
              {
                "color": "rgba(237, 129, 40, 0.89)",
                "value": 80
              },
              {
                "color": "rgba(245, 54, 54, 0.9)",
                "value": 90
              }
            ]
          },
          "unit": "percent"
        },
        "overrides": []
      },
      "gridPos": {
        "h": 10,
        "w": 12,
        "x": 12,
        "y": 28
      },
      "hideTimeOverride": false,
      "id": 222,
      "links": [],
      "options": {
        "legend": {
          "calcs": [
            "lastNotNull"
          ],
          "displayMode": "list",
          "placement": "bottom",
          "showLegend": true
        },
        "tooltip": {
          "mode": "single",
          "sort": "none"
        }
      },
      "pluginVersion": "9.0.7",
      "targets": [
        {
          "datasource": {
            "type": "prometheus",
            "uid": "PBFA97CFB590B2093"
          },
          "expr": "((node_memory_MemTotal_bytes{} - node_memory_MemFree_bytes{}) / (node_memory_MemTotal_bytes{} )) * 100",
          "format": "time_series",
          "hide": true,
          "intervalFactor": 1,
          "refId": "A",
          "step": 240
        },
        {
          "datasource": {
            "type": "prometheus",
            "uid": "PBFA97CFB590B2093"
          },
          "expr": "100 - ((node_memory_MemAvailable_bytes{domain=\"$domain\"} * 100) / node_memory_MemTotal_bytes{domain=\"$domain\"})",
          "format": "time_series",
          "hide": false,
          "intervalFactor": 1,
          "refId": "B",
          "step": 240
        }
      ],
      "title": "RAM %",
      "type": "timeseries"
    }
  ],
  "refresh": "10s",
  "schemaVersion": 37,
  "style": "dark",
  "tags": [],
  "templating": {
    "list": [
      {
        "current": {
          "selected": false,
          "text": "server",
          "value": "server"
        },
        "datasource": {
          "type": "prometheus",
          "uid": "PBFA97CFB590B2093"
        },
        "definition": "label_values(hypervisor)",
        "hide": 0,
        "includeAll": false,
        "label": "Hypervisors",
        "multi": false,
        "name": "hypers",
        "options": [],
        "query": {
          "query": "label_values(hypervisor)",
          "refId": "StandardVariableQuery"
        },
        "refresh": 1,
        "regex": "",
        "skipUrlSync": false,
        "sort": 0,
        "type": "query"
      },
      {
        "current": {
          "selected": false,
          "text": "server",
          "value": "server"
        },
        "datasource": {
          "type": "prometheus",
          "uid": "PBFA97CFB590B2093"
        },
        "definition": "label_values(isardvdi_hypervisor_scrape_duration_success{hypervisor=\"$hypers\"}, domain)",
        "hide": 2,
        "includeAll": false,
        "multi": false,
        "name": "domain",
        "options": [],
        "query": {
          "query": "label_values(isardvdi_hypervisor_scrape_duration_success{hypervisor=\"$hypers\"}, domain)",
          "refId": "StandardVariableQuery"
        },
        "refresh": 1,
        "regex": "",
        "skipUrlSync": false,
        "sort": 0,
        "type": "query"
      },
      {
        "current": {
          "selected": false,
          "text": "default",
          "value": "default"
        },
        "datasource": {
          "type": "prometheus",
          "uid": "PBFA97CFB590B2093"
        },
        "definition": "label_values(category)",
        "hide": 0,
        "includeAll": false,
        "multi": false,
        "name": "category",
        "options": [],
        "query": {
          "query": "label_values(category)",
          "refId": "StandardVariableQuery"
        },
        "refresh": 1,
        "regex": "",
        "skipUrlSync": false,
        "sort": 0,
        "type": "query"
      },
      {
        "current": {
          "selected": false,
          "text": "default-default",
          "value": "default-default"
        },
        "datasource": {
          "type": "prometheus",
          "uid": "PBFA97CFB590B2093"
        },
        "definition": "label_values(group)",
        "hide": 0,
        "includeAll": false,
        "multi": false,
        "name": "group",
        "options": [],
        "query": {
          "query": "label_values(group)",
          "refId": "StandardVariableQuery"
        },
        "refresh": 1,
        "regex": "",
        "skipUrlSync": false,
        "sort": 0,
        "type": "query"
      }
    ]
  },
  "time": {
    "from": "now-1h",
    "to": "now"
  },
  "timepicker": {
    "refresh_intervals": [
      "10s",
      "30s",
      "1m",
      "5m",
      "15m",
      "30m",
      "1h",
      "2h",
      "1d"
    ],
    "time_options": [
      "5m",
      "15m",
      "1h",
      "6h",
      "12h",
      "24h",
      "2d",
      "7d",
      "30d"
    ]
  },
  "timezone": "",
  "title": "IsardVDI Categories",
  "uid": "Xcz9ESZ4k",
  "version": 1,
  "weekStart": ""
}
